Sensory Marketing and Product Innovation
…
We first set the url (Uniform Resource Locator) for the download.

url_of_file <- "https://www.ovgu.de/lichters/smpi/data/hearing_test_2023.xlsx"

We then download the file to our current R project. Base R isn’t able to handle Excel files that well. Thus, we are using the function read.xlsx() provided by the openxlsx package (Schauberger & Walker, 2023).

hearing_test <- read.xlsx(url_of_file) %>% as_tibble()

If anything does not work out as expected on your machine, you can download the data by clicking on the following button.

Let’s have a look at the dataset:

hearing_test

# A tibble: 27 × 4
   Gender   Age Frequency  Year
   <chr>  <dbl>     <dbl> <dbl>
 1 f         21     16000  2022
 2 f         23     16400  2022
 3 m         25     15850  2022
 4 m         26     16302  2022
 5 f         21     16000  2022
 6 f         22     18000  2022
 7 f         28     18000  2022
 8 f         26     13711  2022
 9 f         25     14287  2022
10 f         24     16222  2022
# ℹ 17 more rows
…
