Sensory Marketing and Product Innovation
…
As a result, the data set Working dataset Cappuccino.csv is stored in the current working directory of your R-project. All we need to do is to import it to our current R analysis session. For this purpose, we use read.csv() function. We assign the data set to a new object, d. In the last step, we convert the object to the [tibble] (https://tibble.tidyverse.org/) format, which is prominent among marketing researchers.

d <- read.csv("Working dataset Cappuccino.csv")

d <- as_tibble(d)

Finally, we can give a brief overview of the imported data:

print(d)

# A tibble: 104 × 13
      ID OL.Bar.1shot...Lab OL.Siz.1shot...Lab OL.Bar.2shot...Lab
   <int>              <int>              <int>              <int>
 1     1                  6                  5                  7
 2     3                  8                  7                  4
 3     4                  5                  9                  9
 4     5                  7                  9                  7
 5     6                  7                  5                  6
 6     7                  7                  7                  8
 7     8                  6                  8                  6
 8     9                  8                  9                  7
 9    11                  7                  6                  5
10    12                  8                  6                  8
# ℹ 94 more rows
# ℹ 9 more variables: OL.Siz.2shot...Lab <int>, OL.Bar.1shot...VR <int>,
#   OL.Siz.1shot...VR <int>, OL.Bar.2shot...VR <int>, OL.Siz.2shot...VR <int>,
#   OL.Bar.1shot...Fil <int>, OL.Siz.1shot...Fil <int>,
#   OL.Bar.2shot...Fil <int>, OL.Siz.2shot...Fil <int>
…
We first tell R to handle the first column, “ID” as a categorical factor variable instead of a numerical one.

Next, we use the function pivot_longer to restructure our data set from the wide format (each consumer is one row) to the long format (each product judgment is one row). Thus, we are stacking the data. We are doing so because the subsequent repeated measures ANOVA (rANOVA) expects the long instead of the wide format. Within the function call, we hand in d for the data argument. Further, we tell the function to use the columns named “OL.Bar.1shot…Lab” to “OL.Siz.2shot…Fil” for creating the longer format. The names_to argument tells the function which name to use for the new stacked variable collecting all product variant names. Finally, the values_to argument sets the name for the stacked product evaluations. The results are stored in a new object called d_stacked.

d$ID <- as_factor(d$ID)

d_stacked <- pivot_longer(data = d, 
                          cols = OL.Bar.1shot...Lab:OL.Siz.2shot...Fil, 
                          names_to = "product_sample", 
                          values_to = "liking")

print(d_stacked)

# A tibble: 1,248 × 3
   ID    product_sample     liking
   <fct> <chr>               <int>
 1 1     OL.Bar.1shot...Lab      6
 2 1     OL.Siz.1shot...Lab      5
 3 1     OL.Bar.2shot...Lab      7
 4 1     OL.Siz.2shot...Lab      8
 5 1     OL.Bar.1shot...VR       7
 6 1     OL.Siz.1shot...VR       6
 7 1     OL.Bar.2shot...VR       8
 8 1     OL.Siz.2shot...VR       7
 9 1     OL.Bar.1shot...Fil      4
10 1     OL.Siz.1shot...Fil      8
# ℹ 1,238 more rows
…
d_stacked <-  d_stacked %>% mutate(
  environment = case_when(
  str_detect(product_sample, "Lab") ~ 'Sensory_Lab',
  str_detect(product_sample, "VR") ~ 'Immersive_Coffeehouse',
  str_detect(product_sample, "Fil") ~ 'Real_Coffeehouse'
  ))

d_stacked$sample <- as_factor(d_stacked$sample)
d_stacked$environment <- as_factor(d_stacked$environment)

print(d_stacked)

# A tibble: 1,248 × 5
   ID    product_sample     liking sample    environment          
   <fct> <chr>               <int> <fct>     <fct>                
 1 1     OL.Bar.1shot...Lab      6 Bar_1shot Sensory_Lab          
 2 1     OL.Siz.1shot...Lab      5 Siz_1shot Sensory_Lab          
 3 1     OL.Bar.2shot...Lab      7 Bar_2shot Sensory_Lab          
 4 1     OL.Siz.2shot...Lab      8 Siz_2shot Sensory_Lab          
 5 1     OL.Bar.1shot...VR       7 Bar_1shot Immersive_Coffeehouse
 6 1     OL.Siz.1shot...VR       6 Siz_1shot Immersive_Coffeehouse
 7 1     OL.Bar.2shot...VR       8 Bar_2shot Immersive_Coffeehouse
 8 1     OL.Siz.2shot...VR       7 Siz_2shot Immersive_Coffeehouse
 9 1     OL.Bar.1shot...Fil      4 Bar_1shot Real_Coffeehouse     
10 1     OL.Siz.1shot...Fil      8 Siz_1shot Real_Coffeehouse     
# ℹ 1,238 more rows
…
